-- Merging decision tree log ---
manifest
ADDED from /home/spc/letsnav/android/app/src/main/AndroidManifest.xml:1:1-25:12
INJECTED from /home/spc/letsnav/android/app/src/main/AndroidManifest.xml:1:1-25:12
INJECTED from /home/spc/letsnav/android/app/src/main/AndroidManifest.xml:1:1-25:12
INJECTED from /home/spc/letsnav/android/app/src/main/AndroidManifest.xml:1:1-25:12
MERGED from /home/spc/letsnav/android/app/src/main/AndroidManifest.xml:1:1-25:12
MERGED from [com.facebook.flipper:flipper:0.93.0] /home/spc/.gradle/caches/transforms-3/8cf55bdce16a002612f05f30a64a017a/transformed/jetified-flipper-0.93.0/AndroidManifest.xml:8:1-18:12
MERGED from [com.facebook.flipper:flipper-network-plugin:0.93.0] /home/spc/.gradle/caches/transforms-3/6ac5e08a3d747ccd42a04f95db527b1e/transformed/jetified-flipper-network-plugin-0.93.0/AndroidManifest.xml:8:1-15:12
MERGED from [com.facebook.flipper:flipper-fresco-plugin:0.93.0] /home/spc/.gradle/caches/transforms-3/594e574e0e6998dd29b825080f234440/transformed/jetified-flipper-fresco-plugin-0.93.0/AndroidManifest.xml:8:1-15:12
MERGED from [:react-native-masked-view_masked-view] /home/spc/letsnav/node_modules/@react-native-masked-view/masked-view/android/build/intermediates/merged_manifest/debug/AndroidManifest.xml:2:1-9:12
MERGED from [:react-native-gesture-handler] /home/spc/letsnav/node_modules/react-native-gesture-handler/android/build/intermediates/merged_manifest/debug/AndroidManifest.xml:2:1-9:12
MERGED from [:react-native-safe-area-context] /home/spc/letsnav/node_modules/react-native-safe-area-context/android/build/intermediates/merged_manifest/debug/AndroidManifest.xml:2:1-9:12
MERGED from [:react-native-screens] /home/spc/letsnav/node_modules/react-native-screens/android/build/intermediates/merged_manifest/debug/AndroidManifest.xml:2:1-9:12
MERGED from [com.facebook.react:react-native:0.65.1] /home/spc/.gradle/caches/transforms-3/7cdf8de9c37004713d4017747f452054/transformed/jetified-react-native-0.65.1/AndroidManifest.xml:2:1-11:12
MERGED from [androidx.swiperefreshlayout:swiperefreshlayout:1.0.0] /home/spc/.gradle/caches/transforms-3/13fd9b66b2f17faf01d7b58e404cc03f/transformed/swiperefreshlayout-1.0.0/AndroidManifest.xml:17:1-22:12
MERGED from [org.webkit:android-jsc:r250230] /home/spc/.gradle/caches/transforms-3/2dd430581997c82f8fcb8ae144aabe30/transformed/jetified-android-jsc-r250230/AndroidManifest.xml:2:1-11:12
MERGED from [com.facebook.fresco:flipper:2.5.0] /home/spc/.gradle/caches/transforms-3/2f21b78f47e70f7f390b95648cb53ecb/transformed/jetified-flipper-2.5.0/AndroidManifest.xml:2:1-9:12
MERGED from [com.facebook.fresco:stetho:2.5.0] /home/spc/.gradle/caches/transforms-3/0c4bcb3bc45babba9de2932e4bc8e6f3/transformed/jetified-stetho-2.5.0/AndroidManifest.xml:2:1-9:12
MERGED from [com.facebook.fresco:fresco:2.5.0] /home/spc/.gradle/caches/transforms-3/801ccee8e1f8d30d957d8b138c94ad86/transformed/jetified-fresco-2.5.0/AndroidManifest.xml:2:1-9:12
MERGED from [com.facebook.fresco:soloader:2.5.0] /home/spc/.gradle/caches/transforms-3/1fdd7aa263df513d6dcfdf66851e5e95/transformed/jetified-soloader-2.5.0/AndroidManifest.xml:2:1-9:12
MERGED from [com.facebook.fresco:imagepipeline-okhttp3:2.5.0] /home/spc/.gradle/caches/transforms-3/feaf1c2e21e1bcc0b2ecbde345acfe51/transformed/jetified-imagepipeline-okhttp3-2.5.0/AndroidManifest.xml:2:1-9:12
MERGED from [com.facebook.fresco:drawee:2.5.0] /home/spc/.gradle/caches/transforms-3/914e0aa8dc7c704f74eaed0d9a1f1d98/transformed/jetified-drawee-2.5.0/AndroidManifest.xml:2:1-9:12
MERGED from [com.facebook.fresco:nativeimagefilters:2.5.0] /home/spc/.gradle/caches/transforms-3/aa23f3de99456ddb77446164f5fa9845/transformed/jetified-nativeimagefilters-2.5.0/AndroidManifest.xml:2:1-9:12
MERGED from [com.facebook.fresco:memory-type-native:2.5.0] /home/spc/.gradle/caches/transforms-3/b3926f635d3726cafff2d21d34a1fd75/transformed/jetified-memory-type-native-2.5.0/AndroidManifest.xml:2:1-9:12
MERGED from [com.facebook.fresco:memory-type-java:2.5.0] /home/spc/.gradle/caches/transforms-3/11fda29d5a39a76895b404b5f8502439/transformed/jetified-memory-type-java-2.5.0/AndroidManifest.xml:2:1-9:12
MERGED from [com.facebook.fresco:imagepipeline-native:2.5.0] /home/spc/.gradle/caches/transforms-3/9f91872452fec9f8cac2b8abc8d752f5/transformed/jetified-imagepipeline-native-2.5.0/AndroidManifest.xml:2:1-9:12
MERGED from [com.facebook.soloader:soloader:0.10.1] /home/spc/.gradle/caches/transforms-3/d12d0717a5dfac50907beb124f8bfa48/transformed/jetified-soloader-0.10.1/AndroidManifest.xml:2:1-13:12
MERGED from [com.facebook.fresco:memory-type-ashmem:2.5.0] /home/spc/.gradle/caches/transforms-3/580179cef5993371d2961083fecc0dbf/transformed/jetified-memory-type-ashmem-2.5.0/AndroidManifest.xml:2:1-9:12
MERGED from [com.facebook.fresco:imagepipeline:2.5.0] /home/spc/.gradle/caches/transforms-3/5d5357932f37219c38c8fa448eaf981e/transformed/jetified-imagepipeline-2.5.0/AndroidManifest.xml:2:1-9:12
MERGED from [com.facebook.fresco:nativeimagetranscoder:2.5.0] /home/spc/.gradle/caches/transforms-3/4c442597a861c2652732a701d9d3c91a/transformed/jetified-nativeimagetranscoder-2.5.0/AndroidManifest.xml:2:1-9:12
MERGED from [com.facebook.fresco:imagepipeline-base:2.5.0] /home/spc/.gradle/caches/transforms-3/e81ff2c410c9c4c65f348279222cb415/transformed/jetified-imagepipeline-base-2.5.0/AndroidManifest.xml:2:1-9:12
MERGED from [com.google.android.material:material:1.1.0] /home/spc/.gradle/caches/transforms-3/d9a3ea39a981c7afa2f0112a00415ec8/transformed/material-1.1.0/AndroidManifest.xml:17:1-24:12
MERGED from [androidx.appcompat:appcompat:1.1.0] /home/spc/.gradle/caches/transforms-3/2b33f08a78071dc79c67b5b0c82c3366/transformed/appcompat-1.1.0/AndroidManifest.xml:17:1-24:12
MERGED from [androidx.sqlite:sqlite-framework:2.1.0] /home/spc/.gradle/caches/transforms-3/62e793d6324c2b6a9382e6315c1b532e/transformed/sqlite-framework-2.1.0/AndroidManifest.xml:17:1-24:12
MERGED from [com.facebook.fresco:middleware:2.5.0] /home/spc/.gradle/caches/transforms-3/114841314514d9a65e8d22e05c8ceabf/transformed/jetified-middleware-2.5.0/AndroidManifest.xml:2:1-9:12
MERGED from [com.facebook.fresco:ui-common:2.5.0] /home/spc/.gradle/caches/transforms-3/3252ac46dcb17d63ba20d00d7bb0f736/transformed/jetified-ui-common-2.5.0/AndroidManifest.xml:2:1-9:12
MERGED from [androidx.appcompat:appcompat-resources:1.1.0] /home/spc/.gradle/caches/transforms-3/f4a580ed86404330cdde1cd4e0443948/transformed/jetified-appcompat-resources-1.1.0/AndroidManifest.xml:17:1-24:12
MERGED from [androidx.vectordrawable:vectordrawable-animated:1.1.0] /home/spc/.gradle/caches/transforms-3/100f9afd43163cea733b7e119bfb7ca1/transformed/vectordrawable-animated-1.1.0/AndroidManifest.xml:17:1-24:12
MERGED from [androidx.interpolator:interpolator:1.0.0] /home/spc/.gradle/caches/transforms-3/4c96dbb520598e1771fc20da1c78c465/transformed/interpolator-1.0.0/AndroidManifest.xml:17:1-22:12
MERGED from [androidx.viewpager2:viewpager2:1.0.0] /home/spc/.gradle/caches/transforms-3/c1ef5a205b6e6ceae33d16827732bc34/transformed/jetified-viewpager2-1.0.0/AndroidManifest.xml:17:1-24:12
MERGED from [androidx.fragment:fragment:1.2.1] /home/spc/.gradle/caches/transforms-3/ebefcde4584188be717bf48b8f0a0b6e/transformed/fragment-1.2.1/AndroidManifest.xml:17:1-24:12
MERGED from [androidx.coordinatorlayout:coordinatorlayout:1.1.0] /home/spc/.gradle/caches/transforms-3/b2eec485abde1d0f24da7ddb092dc0cd/transformed/coordinatorlayout-1.1.0/AndroidManifest.xml:17:1-24:12
MERGED from [androidx.core:core-ktx:1.6.0] /home/spc/.gradle/caches/transforms-3/98de6488e1d327efb908ed1b1b560098/transformed/jetified-core-ktx-1.6.0/AndroidManifest.xml:2:1-9:12
MERGED from [androidx.cursoradapter:cursoradapter:1.0.0] /home/spc/.gradle/caches/transforms-3/7ed24e4710ca719f2a8a1c0f3e4c628b/transformed/cursoradapter-1.0.0/AndroidManifest.xml:17:1-22:12
MERGED from [androidx.drawerlayout:drawerlayout:1.0.0] /home/spc/.gradle/caches/transforms-3/879cd5f1be7cb3dbdda082b464daa554/transformed/drawerlayout-1.0.0/AndroidManifest.xml:17:1-22:12
MERGED from [androidx.sqlite:sqlite:2.1.0] /home/spc/.gradle/caches/transforms-3/1226afd98d18ad193d00520ae178b2d1/transformed/sqlite-2.1.0/AndroidManifest.xml:17:1-24:12
MERGED from [androidx.transition:transition:1.2.0] /home/spc/.gradle/caches/transforms-3/1eb731cf52ecd5a4523ad633daddc13d/transformed/transition-1.2.0/AndroidManifest.xml:17:1-24:12
MERGED from [androidx.vectordrawable:vectordrawable:1.1.0] /home/spc/.gradle/caches/transforms-3/fbbc0703f95d7fb5185f4d3b85eda56f/transformed/vectordrawable-1.1.0/AndroidManifest.xml:17:1-24:12
MERGED from [androidx.viewpager:viewpager:1.0.0] /home/spc/.gradle/caches/transforms-3/c482f099e221dd7acb6105e6c5164be5/transformed/viewpager-1.0.0/AndroidManifest.xml:17:1-22:12
MERGED from [androidx.loader:loader:1.0.0] /home/spc/.gradle/caches/transforms-3/58ca797dab572b881eade8346fd2f20d/transformed/loader-1.0.0/AndroidManifest.xml:17:1-22:12
MERGED from [androidx.activity:activity:1.1.0] /home/spc/.gradle/caches/transforms-3/4d7e3cb9d544cf72eacca2866168532d/transformed/jetified-activity-1.1.0/AndroidManifest.xml:17:1-24:12
MERGED from [androidx.recyclerview:recyclerview:1.1.0] /home/spc/.gradle/caches/transforms-3/9aadd3f0a6c65498e91bf8445c970fc4/transformed/recyclerview-1.1.0/AndroidManifest.xml:17:1-24:12
MERGED from [androidx.customview:customview:1.0.0] /home/spc/.gradle/caches/transforms-3/e6871fc476ba173388ae7c71d6340d34/transformed/customview-1.0.0/AndroidManifest.xml:17:1-22:12
MERGED from [androidx.core:core:1.6.0] /home/spc/.gradle/caches/transforms-3/d9b71328e8ba86dc125344804cb6eb44/transformed/core-1.6.0/AndroidManifest.xml:17:1-26:12
MERGED from [androidx.versionedparcelable:versionedparcelable:1.1.1] /home/spc/.gradle/caches/transforms-3/94c7c92f0d98d56b6d7d25165faa3647/transformed/versionedparcelable-1.1.1/AndroidManifest.xml:17:1-27:12
MERGED from [androidx.lifecycle:lifecycle-viewmodel-savedstate:2.2.0] /home/spc/.gradle/caches/transforms-3/5854c5f4d0aa4ade98476ef51376ec56/transformed/jetified-lifecycle-viewmodel-savedstate-2.2.0/AndroidManifest.xml:17:1-24:12
MERGED from [androidx.lifecycle:lifecycle-viewmodel:2.2.0] /home/spc/.gradle/caches/transforms-3/8eae7e885f280ad5f0fd528392efc2a7/transformed/lifecycle-viewmodel-2.2.0/AndroidManifest.xml:17:1-24:12
MERGED from [androidx.cardview:cardview:1.0.0] /home/spc/.gradle/caches/transforms-3/f2ad7df0010e7f67f5ad228c58f9ed39/transformed/cardview-1.0.0/AndroidManifest.xml:17:1-22:12
MERGED from [androidx.lifecycle:lifecycle-runtime:2.2.0] /home/spc/.gradle/caches/transforms-3/12f6c4b2a13d3e595268c585dcad626e/transformed/lifecycle-runtime-2.2.0/AndroidManifest.xml:17:1-24:12
MERGED from [androidx.savedstate:savedstate:1.0.0] /home/spc/.gradle/caches/transforms-3/94edd46825b6420e602a89233c3e1acc/transformed/jetified-savedstate-1.0.0/AndroidManifest.xml:17:1-24:12
MERGED from [androidx.lifecycle:lifecycle-livedata:2.0.0] /home/spc/.gradle/caches/transforms-3/fcec1de4998beb0ff43cceab9e1087fb/transformed/lifecycle-livedata-2.0.0/AndroidManifest.xml:17:1-22:12
MERGED from [androidx.lifecycle:lifecycle-livedata-core:2.2.0] /home/spc/.gradle/caches/transforms-3/bc9ac48df2868c7096293dd453825149/transformed/lifecycle-livedata-core-2.2.0/AndroidManifest.xml:17:1-24:12
MERGED from [androidx.arch.core:core-runtime:2.1.0] /home/spc/.gradle/caches/transforms-3/93f6eb2b7b06805b3d18d5defe030544/transformed/core-runtime-2.1.0/AndroidManifest.xml:17:1-24:12
MERGED from [com.facebook.fresco:fbcore:2.5.0] /home/spc/.gradle/caches/transforms-3/13a62fc9eac702d3af832565af840540/transformed/jetified-fbcore-2.5.0/AndroidManifest.xml:2:1-9:12
MERGED from [androidx.annotation:annotation-experimental:1.1.0] /home/spc/.gradle/caches/transforms-3/00092cdafea6f2aba95b7d4b2672c144/transformed/jetified-annotation-experimental-1.1.0/AndroidManifest.xml:17:1-24:12
INJECTED from /home/spc/letsnav/android/app/src/debug/AndroidManifest.xml:2:1-13:12
INJECTED from /home/spc/letsnav/android/app/src/debug/AndroidManifest.xml:2:1-13:12
INJECTED from /home/spc/letsnav/android/app/src/debug/AndroidManifest.xml:2:1-13:12
	package
		ADDED from /home/spc/letsnav/android/app/src/main/AndroidManifest.xml:2:3-26
		INJECTED from /home/spc/letsnav/android/app/src/main/AndroidManifest.xml
		ADDED from /home/spc/letsnav/android/app/src/main/AndroidManifest.xml:2:3-26
		INJECTED from /home/spc/letsnav/android/app/src/debug/AndroidManifest.xml
	android:versionName
		INJECTED from /home/spc/letsnav/android/app/src/main/AndroidManifest.xml
		ADDED from /home/spc/letsnav/android/app/src/main/AndroidManifest.xml:1:1-25:12
		INJECTED from /home/spc/letsnav/android/app/src/debug/AndroidManifest.xml
	xmlns:tools
		ADDED from /home/spc/letsnav/android/app/src/debug/AndroidManifest.xml:3:5-51
	android:versionCode
		INJECTED from /home/spc/letsnav/android/app/src/main/AndroidManifest.xml
		ADDED from /home/spc/letsnav/android/app/src/main/AndroidManifest.xml:1:1-25:12
		INJECTED from /home/spc/letsnav/android/app/src/debug/AndroidManifest.xml
	xmlns:android
		ADDED from /home/spc/letsnav/android/app/src/main/AndroidManifest.xml:1:11-69
uses-permission#android.permission.INTERNET
ADDED from /home/spc/letsnav/android/app/src/main/AndroidManifest.xml:4:5-67
MERGED from [com.facebook.flipper:flipper:0.93.0] /home/spc/.gradle/caches/transforms-3/8cf55bdce16a002612f05f30a64a017a/transformed/jetified-flipper-0.93.0/AndroidManifest.xml:15:5-67
MERGED from [com.facebook.flipper:flipper:0.93.0] /home/spc/.gradle/caches/transforms-3/8cf55bdce16a002612f05f30a64a017a/transformed/jetified-flipper-0.93.0/AndroidManifest.xml:15:5-67
	android:name
		ADDED from /home/spc/letsnav/android/app/src/main/AndroidManifest.xml:4:22-64
application
ADDED from /home/spc/letsnav/android/app/src/main/AndroidManifest.xml:6:5-24:19
MERGED from /home/spc/letsnav/android/app/src/main/AndroidManifest.xml:6:5-24:19
MERGED from /home/spc/letsnav/android/app/src/main/AndroidManifest.xml:6:5-24:19
MERGED from [com.facebook.react:react-native:0.65.1] /home/spc/.gradle/caches/transforms-3/7cdf8de9c37004713d4017747f452054/transformed/jetified-react-native-0.65.1/AndroidManifest.xml:9:5-20
MERGED from [com.facebook.react:react-native:0.65.1] /home/spc/.gradle/caches/transforms-3/7cdf8de9c37004713d4017747f452054/transformed/jetified-react-native-0.65.1/AndroidManifest.xml:9:5-20
MERGED from [com.facebook.soloader:soloader:0.10.1] /home/spc/.gradle/caches/transforms-3/d12d0717a5dfac50907beb124f8bfa48/transformed/jetified-soloader-0.10.1/AndroidManifest.xml:11:5-20
MERGED from [com.facebook.soloader:soloader:0.10.1] /home/spc/.gradle/caches/transforms-3/d12d0717a5dfac50907beb124f8bfa48/transformed/jetified-soloader-0.10.1/AndroidManifest.xml:11:5-20
MERGED from [com.google.android.material:material:1.1.0] /home/spc/.gradle/caches/transforms-3/d9a3ea39a981c7afa2f0112a00415ec8/transformed/material-1.1.0/AndroidManifest.xml:22:5-20
MERGED from [com.google.android.material:material:1.1.0] /home/spc/.gradle/caches/transforms-3/d9a3ea39a981c7afa2f0112a00415ec8/transformed/material-1.1.0/AndroidManifest.xml:22:5-20
MERGED from [androidx.core:core:1.6.0] /home/spc/.gradle/caches/transforms-3/d9b71328e8ba86dc125344804cb6eb44/transformed/core-1.6.0/AndroidManifest.xml:24:5-89
MERGED from [androidx.core:core:1.6.0] /home/spc/.gradle/caches/transforms-3/d9b71328e8ba86dc125344804cb6eb44/transformed/core-1.6.0/AndroidManifest.xml:24:5-89
MERGED from [androidx.versionedparcelable:versionedparcelable:1.1.1] /home/spc/.gradle/caches/transforms-3/94c7c92f0d98d56b6d7d25165faa3647/transformed/versionedparcelable-1.1.1/AndroidManifest.xml:24:5-25:19
MERGED from [androidx.versionedparcelable:versionedparcelable:1.1.1] /home/spc/.gradle/caches/transforms-3/94c7c92f0d98d56b6d7d25165faa3647/transformed/versionedparcelable-1.1.1/AndroidManifest.xml:24:5-25:19
	android:appComponentFactory
		ADDED from [androidx.core:core:1.6.0] /home/spc/.gradle/caches/transforms-3/d9b71328e8ba86dc125344804cb6eb44/transformed/core-1.6.0/AndroidManifest.xml:24:18-86
	android:label
		ADDED from /home/spc/letsnav/android/app/src/main/AndroidManifest.xml:8:7-39
		ADDED from /home/spc/letsnav/android/app/src/main/AndroidManifest.xml:8:7-39
	tools:ignore
		ADDED from /home/spc/letsnav/android/app/src/debug/AndroidManifest.xml:10:9-48
	android:roundIcon
		ADDED from /home/spc/letsnav/android/app/src/main/AndroidManifest.xml:10:7-52
		ADDED from /home/spc/letsnav/android/app/src/main/AndroidManifest.xml:10:7-52
	tools:targetApi
		ADDED from /home/spc/letsnav/android/app/src/debug/AndroidManifest.xml:9:9-29
	android:icon
		ADDED from /home/spc/letsnav/android/app/src/main/AndroidManifest.xml:9:7-41
		ADDED from /home/spc/letsnav/android/app/src/main/AndroidManifest.xml:9:7-41
	android:allowBackup
		ADDED from /home/spc/letsnav/android/app/src/main/AndroidManifest.xml:11:7-34
		ADDED from /home/spc/letsnav/android/app/src/main/AndroidManifest.xml:11:7-34
	android:theme
		ADDED from /home/spc/letsnav/android/app/src/main/AndroidManifest.xml:12:7-38
		ADDED from /home/spc/letsnav/android/app/src/main/AndroidManifest.xml:12:7-38
	android:usesCleartextTraffic
		ADDED from /home/spc/letsnav/android/app/src/debug/AndroidManifest.xml:8:9-44
	android:name
		ADDED from /home/spc/letsnav/android/app/src/main/AndroidManifest.xml:7:7-38
		ADDED from /home/spc/letsnav/android/app/src/main/AndroidManifest.xml:7:7-38
activity#com.kamislima.MainActivity
ADDED from /home/spc/letsnav/android/app/src/main/AndroidManifest.xml:13:7-23:18
	android:label
		ADDED from /home/spc/letsnav/android/app/src/main/AndroidManifest.xml:15:9-41
	android:launchMode
		ADDED from /home/spc/letsnav/android/app/src/main/AndroidManifest.xml:17:9-40
	android:windowSoftInputMode
		ADDED from /home/spc/letsnav/android/app/src/main/AndroidManifest.xml:18:9-51
	android:configChanges
		ADDED from /home/spc/letsnav/android/app/src/main/AndroidManifest.xml:16:9-86
	android:name
		ADDED from /home/spc/letsnav/android/app/src/main/AndroidManifest.xml:14:9-37
intent-filter#action:name:android.intent.action.MAIN+category:name:android.intent.category.LAUNCHER
ADDED from /home/spc/letsnav/android/app/src/main/AndroidManifest.xml:19:9-22:25
action#android.intent.action.MAIN
ADDED from /home/spc/letsnav/android/app/src/main/AndroidManifest.xml:20:13-65
	android:name
		ADDED from /home/spc/letsnav/android/app/src/main/AndroidManifest.xml:20:21-62
category#android.intent.category.LAUNCHER
ADDED from /home/spc/letsnav/android/app/src/main/AndroidManifest.xml:21:13-73
	android:name
		ADDED from /home/spc/letsnav/android/app/src/main/AndroidManifest.xml:21:23-70
uses-sdk
INJECTED from /home/spc/letsnav/android/app/src/main/AndroidManifest.xml reason: use-sdk injection requested
INJECTED from /home/spc/letsnav/android/app/src/main/AndroidManifest.xml
INJECTED from /home/spc/letsnav/android/app/src/main/AndroidManifest.xml
MERGED from [com.facebook.flipper:flipper:0.93.0] /home/spc/.gradle/caches/transforms-3/8cf55bdce16a002612f05f30a64a017a/transformed/jetified-flipper-0.93.0/AndroidManifest.xml:11:5-13:41
MERGED from [com.facebook.flipper:flipper:0.93.0] /home/spc/.gradle/caches/transforms-3/8cf55bdce16a002612f05f30a64a017a/transformed/jetified-flipper-0.93.0/AndroidManifest.xml:11:5-13:41
MERGED from [com.facebook.flipper:flipper-network-plugin:0.93.0] /home/spc/.gradle/caches/transforms-3/6ac5e08a3d747ccd42a04f95db527b1e/transformed/jetified-flipper-network-plugin-0.93.0/AndroidManifest.xml:11:5-13:41
MERGED from [com.facebook.flipper:flipper-network-plugin:0.93.0] /home/spc/.gradle/caches/transforms-3/6ac5e08a3d747ccd42a04f95db527b1e/transformed/jetified-flipper-network-plugin-0.93.0/AndroidManifest.xml:11:5-13:41
MERGED from [com.facebook.flipper:flipper-fresco-plugin:0.93.0] /home/spc/.gradle/caches/transforms-3/594e574e0e6998dd29b825080f234440/transformed/jetified-flipper-fresco-plugin-0.93.0/AndroidManifest.xml:11:5-13:41
MERGED from [com.facebook.flipper:flipper-fresco-plugin:0.93.0] /home/spc/.gradle/caches/transforms-3/594e574e0e6998dd29b825080f234440/transformed/jetified-flipper-fresco-plugin-0.93.0/AndroidManifest.xml:11:5-13:41
MERGED from [:react-native-masked-view_masked-view] /home/spc/letsnav/node_modules/@react-native-masked-view/masked-view/android/build/intermediates/merged_manifest/debug/AndroidManifest.xml:5:5-7:41
MERGED from [:react-native-masked-view_masked-view] /home/spc/letsnav/node_modules/@react-native-masked-view/masked-view/android/build/intermediates/merged_manifest/debug/AndroidManifest.xml:5:5-7:41
MERGED from [:react-native-gesture-handler] /home/spc/letsnav/node_modules/react-native-gesture-handler/android/build/intermediates/merged_manifest/debug/AndroidManifest.xml:5:5-7:41
MERGED from [:react-native-gesture-handler] /home/spc/letsnav/node_modules/react-native-gesture-handler/android/build/intermediates/merged_manifest/debug/AndroidManifest.xml:5:5-7:41
MERGED from [:react-native-safe-area-context] /home/spc/letsnav/node_modules/react-native-safe-area-context/android/build/intermediates/merged_manifest/debug/AndroidManifest.xml:5:5-7:41
MERGED from [:react-native-safe-area-context] /home/spc/letsnav/node_modules/react-native-safe-area-context/android/build/intermediates/merged_manifest/debug/AndroidManifest.xml:5:5-7:41
MERGED from [:react-native-screens] /home/spc/letsnav/node_modules/react-native-screens/android/build/intermediates/merged_manifest/debug/AndroidManifest.xml:5:5-7:41
MERGED from [:react-native-screens] /home/spc/letsnav/node_modules/react-native-screens/android/build/intermediates/merged_manifest/debug/AndroidManifest.xml:5:5-7:41
MERGED from [com.facebook.react:react-native:0.65.1] /home/spc/.gradle/caches/transforms-3/7cdf8de9c37004713d4017747f452054/transformed/jetified-react-native-0.65.1/AndroidManifest.xml:5:5-7:41
MERGED from [com.facebook.react:react-native:0.65.1] /home/spc/.gradle/caches/transforms-3/7cdf8de9c37004713d4017747f452054/transformed/jetified-react-native-0.65.1/AndroidManifest.xml:5:5-7:41
MERGED from [androidx.swiperefreshlayout:swiperefreshlayout:1.0.0] /home/spc/.gradle/caches/transforms-3/13fd9b66b2f17faf01d7b58e404cc03f/transformed/swiperefreshlayout-1.0.0/AndroidManifest.xml:20:5-44
MERGED from [androidx.swiperefreshlayout:swiperefreshlayout:1.0.0] /home/spc/.gradle/caches/transforms-3/13fd9b66b2f17faf01d7b58e404cc03f/transformed/swiperefreshlayout-1.0.0/AndroidManifest.xml:20:5-44
MERGED from [org.webkit:android-jsc:r250230] /home/spc/.gradle/caches/transforms-3/2dd430581997c82f8fcb8ae144aabe30/transformed/jetified-android-jsc-r250230/AndroidManifest.xml:7:5-9:41
MERGED from [org.webkit:android-jsc:r250230] /home/spc/.gradle/caches/transforms-3/2dd430581997c82f8fcb8ae144aabe30/transformed/jetified-android-jsc-r250230/AndroidManifest.xml:7:5-9:41
MERGED from [com.facebook.fresco:flipper:2.5.0] /home/spc/.gradle/caches/transforms-3/2f21b78f47e70f7f390b95648cb53ecb/transformed/jetified-flipper-2.5.0/AndroidManifest.xml:5:5-7:41
MERGED from [com.facebook.fresco:flipper:2.5.0] /home/spc/.gradle/caches/transforms-3/2f21b78f47e70f7f390b95648cb53ecb/transformed/jetified-flipper-2.5.0/AndroidManifest.xml:5:5-7:41
MERGED from [com.facebook.fresco:stetho:2.5.0] /home/spc/.gradle/caches/transforms-3/0c4bcb3bc45babba9de2932e4bc8e6f3/transformed/jetified-stetho-2.5.0/AndroidManifest.xml:5:5-7:41
MERGED from [com.facebook.fresco:stetho:2.5.0] /home/spc/.gradle/caches/transforms-3/0c4bcb3bc45babba9de2932e4bc8e6f3/transformed/jetified-stetho-2.5.0/AndroidManifest.xml:5:5-7:41
MERGED from [com.facebook.fresco:fresco:2.5.0] /home/spc/.gradle/caches/transforms-3/801ccee8e1f8d30d957d8b138c94ad86/transformed/jetified-fresco-2.5.0/AndroidManifest.xml:5:5-7:41
MERGED from [com.facebook.fresco:fresco:2.5.0] /home/spc/.gradle/caches/transforms-3/801ccee8e1f8d30d957d8b138c94ad86/transformed/jetified-fresco-2.5.0/AndroidManifest.xml:5:5-7:41
MERGED from [com.facebook.fresco:soloader:2.5.0] /home/spc/.gradle/caches/transforms-3/1fdd7aa263df513d6dcfdf66851e5e95/transformed/jetified-soloader-2.5.0/AndroidManifest.xml:5:5-7:41
MERGED from [com.facebook.fresco:soloader:2.5.0] /home/spc/.gradle/caches/transforms-3/1fdd7aa263df513d6dcfdf66851e5e95/transformed/jetified-soloader-2.5.0/AndroidManifest.xml:5:5-7:41
MERGED from [com.facebook.fresco:imagepipeline-okhttp3:2.5.0] /home/spc/.gradle/caches/transforms-3/feaf1c2e21e1bcc0b2ecbde345acfe51/transformed/jetified-imagepipeline-okhttp3-2.5.0/AndroidManifest.xml:5:5-7:41
MERGED from [com.facebook.fresco:imagepipeline-okhttp3:2.5.0] /home/spc/.gradle/caches/transforms-3/feaf1c2e21e1bcc0b2ecbde345acfe51/transformed/jetified-imagepipeline-okhttp3-2.5.0/AndroidManifest.xml:5:5-7:41
MERGED from [com.facebook.fresco:drawee:2.5.0] /home/spc/.gradle/caches/transforms-3/914e0aa8dc7c704f74eaed0d9a1f1d98/transformed/jetified-drawee-2.5.0/AndroidManifest.xml:5:5-7:41
MERGED from [com.facebook.fresco:drawee:2.5.0] /home/spc/.gradle/caches/transforms-3/914e0aa8dc7c704f74eaed0d9a1f1d98/transformed/jetified-drawee-2.5.0/AndroidManifest.xml:5:5-7:41
MERGED from [com.facebook.fresco:nativeimagefilters:2.5.0] /home/spc/.gradle/caches/transforms-3/aa23f3de99456ddb77446164f5fa9845/transformed/jetified-nativeimagefilters-2.5.0/AndroidManifest.xml:5:5-7:41
MERGED from [com.facebook.fresco:nativeimagefilters:2.5.0] /home/spc/.gradle/caches/transforms-3/aa23f3de99456ddb77446164f5fa9845/transformed/jetified-nativeimagefilters-2.5.0/AndroidManifest.xml:5:5-7:41
MERGED from [com.facebook.fresco:memory-type-native:2.5.0] /home/spc/.gradle/caches/transforms-3/b3926f635d3726cafff2d21d34a1fd75/transformed/jetified-memory-type-native-2.5.0/AndroidManifest.xml:5:5-7:41
MERGED from [com.facebook.fresco:memory-type-native:2.5.0] /home/spc/.gradle/caches/transforms-3/b3926f635d3726cafff2d21d34a1fd75/transformed/jetified-memory-type-native-2.5.0/AndroidManifest.xml:5:5-7:41
MERGED from [com.facebook.fresco:memory-type-java:2.5.0] /home/spc/.gradle/caches/transforms-3/11fda29d5a39a76895b404b5f8502439/transformed/jetified-memory-type-java-2.5.0/AndroidManifest.xml:5:5-7:41
MERGED from [com.facebook.fresco:memory-type-java:2.5.0] /home/spc/.gradle/caches/transforms-3/11fda29d5a39a76895b404b5f8502439/transformed/jetified-memory-type-java-2.5.0/AndroidManifest.xml:5:5-7:41
MERGED from [com.facebook.fresco:imagepipeline-native:2.5.0] /home/spc/.gradle/caches/transforms-3/9f91872452fec9f8cac2b8abc8d752f5/transformed/jetified-imagepipeline-native-2.5.0/AndroidManifest.xml:5:5-7:41
MERGED from [com.facebook.fresco:imagepipeline-native:2.5.0] /home/spc/.gradle/caches/transforms-3/9f91872452fec9f8cac2b8abc8d752f5/transformed/jetified-imagepipeline-native-2.5.0/AndroidManifest.xml:5:5-7:41
MERGED from [com.facebook.soloader:soloader:0.10.1] /home/spc/.gradle/caches/transforms-3/d12d0717a5dfac50907beb124f8bfa48/transformed/jetified-soloader-0.10.1/AndroidManifest.xml:7:5-9:41
MERGED from [com.facebook.soloader:soloader:0.10.1] /home/spc/.gradle/caches/transforms-3/d12d0717a5dfac50907beb124f8bfa48/transformed/jetified-soloader-0.10.1/AndroidManifest.xml:7:5-9:41
MERGED from [com.facebook.fresco:memory-type-ashmem:2.5.0] /home/spc/.gradle/caches/transforms-3/580179cef5993371d2961083fecc0dbf/transformed/jetified-memory-type-ashmem-2.5.0/AndroidManifest.xml:5:5-7:41
MERGED from [com.facebook.fresco:memory-type-ashmem:2.5.0] /home/spc/.gradle/caches/transforms-3/580179cef5993371d2961083fecc0dbf/transformed/jetified-memory-type-ashmem-2.5.0/AndroidManifest.xml:5:5-7:41
MERGED from [com.facebook.fresco:imagepipeline:2.5.0] /home/spc/.gradle/caches/transforms-3/5d5357932f37219c38c8fa448eaf981e/transformed/jetified-imagepipeline-2.5.0/AndroidManifest.xml:5:5-7:41
MERGED from [com.facebook.fresco:imagepipeline:2.5.0] /home/spc/.gradle/caches/transforms-3/5d5357932f37219c38c8fa448eaf981e/transformed/jetified-imagepipeline-2.5.0/AndroidManifest.xml:5:5-7:41
MERGED from [com.facebook.fresco:nativeimagetranscoder:2.5.0] /home/spc/.gradle/caches/transforms-3/4c442597a861c2652732a701d9d3c91a/transformed/jetified-nativeimagetranscoder-2.5.0/AndroidManifest.xml:5:5-7:41
MERGED from [com.facebook.fresco:nativeimagetranscoder:2.5.0] /home/spc/.gradle/caches/transforms-3/4c442597a861c2652732a701d9d3c91a/transformed/jetified-nativeimagetranscoder-2.5.0/AndroidManifest.xml:5:5-7:41
MERGED from [com.facebook.fresco:imagepipeline-base:2.5.0] /home/spc/.gradle/caches/transforms-3/e81ff2c410c9c4c65f348279222cb415/transformed/jetified-imagepipeline-base-2.5.0/AndroidManifest.xml:5:5-7:41
MERGED from [com.facebook.fresco:imagepipeline-base:2.5.0] /home/spc/.gradle/caches/transforms-3/e81ff2c410c9c4c65f348279222cb415/transformed/jetified-imagepipeline-base-2.5.0/AndroidManifest.xml:5:5-7:41
MERGED from [com.google.android.material:material:1.1.0] /home/spc/.gradle/caches/transforms-3/d9a3ea39a981c7afa2f0112a00415ec8/transformed/material-1.1.0/AndroidManifest.xml:20:5-44
MERGED from [com.google.android.material:material:1.1.0] /home/spc/.gradle/caches/transforms-3/d9a3ea39a981c7afa2f0112a00415ec8/transformed/material-1.1.0/AndroidManifest.xml:20:5-44
MERGED from [androidx.appcompat:appcompat:1.1.0] /home/spc/.gradle/caches/transforms-3/2b33f08a78071dc79c67b5b0c82c3366/transformed/appcompat-1.1.0/AndroidManifest.xml:20:5-22:41
MERGED from [androidx.appcompat:appcompat:1.1.0] /home/spc/.gradle/caches/transforms-3/2b33f08a78071dc79c67b5b0c82c3366/transformed/appcompat-1.1.0/AndroidManifest.xml:20:5-22:41
MERGED from [androidx.sqlite:sqlite-framework:2.1.0] /home/spc/.gradle/caches/transforms-3/62e793d6324c2b6a9382e6315c1b532e/transformed/sqlite-framework-2.1.0/AndroidManifest.xml:20:5-22:41
MERGED from [androidx.sqlite:sqlite-framework:2.1.0] /home/spc/.gradle/caches/transforms-3/62e793d6324c2b6a9382e6315c1b532e/transformed/sqlite-framework-2.1.0/AndroidManifest.xml:20:5-22:41
MERGED from [com.facebook.fresco:middleware:2.5.0] /home/spc/.gradle/caches/transforms-3/114841314514d9a65e8d22e05c8ceabf/transformed/jetified-middleware-2.5.0/AndroidManifest.xml:5:5-7:41
MERGED from [com.facebook.fresco:middleware:2.5.0] /home/spc/.gradle/caches/transforms-3/114841314514d9a65e8d22e05c8ceabf/transformed/jetified-middleware-2.5.0/AndroidManifest.xml:5:5-7:41
MERGED from [com.facebook.fresco:ui-common:2.5.0] /home/spc/.gradle/caches/transforms-3/3252ac46dcb17d63ba20d00d7bb0f736/transformed/jetified-ui-common-2.5.0/AndroidManifest.xml:5:5-7:41
MERGED from [com.facebook.fresco:ui-common:2.5.0] /home/spc/.gradle/caches/transforms-3/3252ac46dcb17d63ba20d00d7bb0f736/transformed/jetified-ui-common-2.5.0/AndroidManifest.xml:5:5-7:41
MERGED from [androidx.appcompat:appcompat-resources:1.1.0] /home/spc/.gradle/caches/transforms-3/f4a580ed86404330cdde1cd4e0443948/transformed/jetified-appcompat-resources-1.1.0/AndroidManifest.xml:20:5-22:41
MERGED from [androidx.appcompat:appcompat-resources:1.1.0] /home/spc/.gradle/caches/transforms-3/f4a580ed86404330cdde1cd4e0443948/transformed/jetified-appcompat-resources-1.1.0/AndroidManifest.xml:20:5-22:41
MERGED from [androidx.vectordrawable:vectordrawable-animated:1.1.0] /home/spc/.gradle/caches/transforms-3/100f9afd43163cea733b7e119bfb7ca1/transformed/vectordrawable-animated-1.1.0/AndroidManifest.xml:20:5-22:41
MERGED from [androidx.vectordrawable:vectordrawable-animated:1.1.0] /home/spc/.gradle/caches/transforms-3/100f9afd43163cea733b7e119bfb7ca1/transformed/vectordrawable-animated-1.1.0/AndroidManifest.xml:20:5-22:41
MERGED from [androidx.interpolator:interpolator:1.0.0] /home/spc/.gradle/caches/transforms-3/4c96dbb520598e1771fc20da1c78c465/transformed/interpolator-1.0.0/AndroidManifest.xml:20:5-44
MERGED from [androidx.interpolator:interpolator:1.0.0] /home/spc/.gradle/caches/transforms-3/4c96dbb520598e1771fc20da1c78c465/transformed/interpolator-1.0.0/AndroidManifest.xml:20:5-44
MERGED from [androidx.viewpager2:viewpager2:1.0.0] /home/spc/.gradle/caches/transforms-3/c1ef5a205b6e6ceae33d16827732bc34/transformed/jetified-viewpager2-1.0.0/AndroidManifest.xml:20:5-22:41
MERGED from [androidx.viewpager2:viewpager2:1.0.0] /home/spc/.gradle/caches/transforms-3/c1ef5a205b6e6ceae33d16827732bc34/transformed/jetified-viewpager2-1.0.0/AndroidManifest.xml:20:5-22:41
MERGED from [androidx.fragment:fragment:1.2.1] /home/spc/.gradle/caches/transforms-3/ebefcde4584188be717bf48b8f0a0b6e/transformed/fragment-1.2.1/AndroidManifest.xml:20:5-22:41
MERGED from [androidx.fragment:fragment:1.2.1] /home/spc/.gradle/caches/transforms-3/ebefcde4584188be717bf48b8f0a0b6e/transformed/fragment-1.2.1/AndroidManifest.xml:20:5-22:41
MERGED from [androidx.coordinatorlayout:coordinatorlayout:1.1.0] /home/spc/.gradle/caches/transforms-3/b2eec485abde1d0f24da7ddb092dc0cd/transformed/coordinatorlayout-1.1.0/AndroidManifest.xml:20:5-22:41
MERGED from [androidx.coordinatorlayout:coordinatorlayout:1.1.0] /home/spc/.gradle/caches/transforms-3/b2eec485abde1d0f24da7ddb092dc0cd/transformed/coordinatorlayout-1.1.0/AndroidManifest.xml:20:5-22:41
MERGED from [androidx.core:core-ktx:1.6.0] /home/spc/.gradle/caches/transforms-3/98de6488e1d327efb908ed1b1b560098/transformed/jetified-core-ktx-1.6.0/AndroidManifest.xml:5:5-7:41
MERGED from [androidx.core:core-ktx:1.6.0] /home/spc/.gradle/caches/transforms-3/98de6488e1d327efb908ed1b1b560098/transformed/jetified-core-ktx-1.6.0/AndroidManifest.xml:5:5-7:41
MERGED from [androidx.cursoradapter:cursoradapter:1.0.0] /home/spc/.gradle/caches/transforms-3/7ed24e4710ca719f2a8a1c0f3e4c628b/transformed/cursoradapter-1.0.0/AndroidManifest.xml:20:5-44
MERGED from [androidx.cursoradapter:cursoradapter:1.0.0] /home/spc/.gradle/caches/transforms-3/7ed24e4710ca719f2a8a1c0f3e4c628b/transformed/cursoradapter-1.0.0/AndroidManifest.xml:20:5-44
MERGED from [androidx.drawerlayout:drawerlayout:1.0.0] /home/spc/.gradle/caches/transforms-3/879cd5f1be7cb3dbdda082b464daa554/transformed/drawerlayout-1.0.0/AndroidManifest.xml:20:5-44
MERGED from [androidx.drawerlayout:drawerlayout:1.0.0] /home/spc/.gradle/caches/transforms-3/879cd5f1be7cb3dbdda082b464daa554/transformed/drawerlayout-1.0.0/AndroidManifest.xml:20:5-44
MERGED from [androidx.sqlite:sqlite:2.1.0] /home/spc/.gradle/caches/transforms-3/1226afd98d18ad193d00520ae178b2d1/transformed/sqlite-2.1.0/AndroidManifest.xml:20:5-22:41
MERGED from [androidx.sqlite:sqlite:2.1.0] /home/spc/.gradle/caches/transforms-3/1226afd98d18ad193d00520ae178b2d1/transformed/sqlite-2.1.0/AndroidManifest.xml:20:5-22:41
MERGED from [androidx.transition:transition:1.2.0] /home/spc/.gradle/caches/transforms-3/1eb731cf52ecd5a4523ad633daddc13d/transformed/transition-1.2.0/AndroidManifest.xml:20:5-22:41
MERGED from [androidx.transition:transition:1.2.0] /home/spc/.gradle/caches/transforms-3/1eb731cf52ecd5a4523ad633daddc13d/transformed/transition-1.2.0/AndroidManifest.xml:20:5-22:41
MERGED from [androidx.vectordrawable:vectordrawable:1.1.0] /home/spc/.gradle/caches/transforms-3/fbbc0703f95d7fb5185f4d3b85eda56f/transformed/vectordrawable-1.1.0/AndroidManifest.xml:20:5-22:41
MERGED from [androidx.vectordrawable:vectordrawable:1.1.0] /home/spc/.gradle/caches/transforms-3/fbbc0703f95d7fb5185f4d3b85eda56f/transformed/vectordrawable-1.1.0/AndroidManifest.xml:20:5-22:41
MERGED from [androidx.viewpager:viewpager:1.0.0] /home/spc/.gradle/caches/transforms-3/c482f099e221dd7acb6105e6c5164be5/transformed/viewpager-1.0.0/AndroidManifest.xml:20:5-44
MERGED from [androidx.viewpager:viewpager:1.0.0] /home/spc/.gradle/caches/transforms-3/c482f099e221dd7acb6105e6c5164be5/transformed/viewpager-1.0.0/AndroidManifest.xml:20:5-44
MERGED from [androidx.loader:loader:1.0.0] /home/spc/.gradle/caches/transforms-3/58ca797dab572b881eade8346fd2f20d/transformed/loader-1.0.0/AndroidManifest.xml:20:5-44
MERGED from [androidx.loader:loader:1.0.0] /home/spc/.gradle/caches/transforms-3/58ca797dab572b881eade8346fd2f20d/transformed/loader-1.0.0/AndroidManifest.xml:20:5-44
MERGED from [androidx.activity:activity:1.1.0] /home/spc/.gradle/caches/transforms-3/4d7e3cb9d544cf72eacca2866168532d/transformed/jetified-activity-1.1.0/AndroidManifest.xml:20:5-22:41
MERGED from [androidx.activity:activity:1.1.0] /home/spc/.gradle/caches/transforms-3/4d7e3cb9d544cf72eacca2866168532d/transformed/jetified-activity-1.1.0/AndroidManifest.xml:20:5-22:41
MERGED from [androidx.recyclerview:recyclerview:1.1.0] /home/spc/.gradle/caches/transforms-3/9aadd3f0a6c65498e91bf8445c970fc4/transformed/recyclerview-1.1.0/AndroidManifest.xml:20:5-22:41
MERGED from [androidx.recyclerview:recyclerview:1.1.0] /home/spc/.gradle/caches/transforms-3/9aadd3f0a6c65498e91bf8445c970fc4/transformed/recyclerview-1.1.0/AndroidManifest.xml:20:5-22:41
MERGED from [androidx.customview:customview:1.0.0] /home/spc/.gradle/caches/transforms-3/e6871fc476ba173388ae7c71d6340d34/transformed/customview-1.0.0/AndroidManifest.xml:20:5-44
MERGED from [androidx.customview:customview:1.0.0] /home/spc/.gradle/caches/transforms-3/e6871fc476ba173388ae7c71d6340d34/transformed/customview-1.0.0/AndroidManifest.xml:20:5-44
MERGED from [androidx.core:core:1.6.0] /home/spc/.gradle/caches/transforms-3/d9b71328e8ba86dc125344804cb6eb44/transformed/core-1.6.0/AndroidManifest.xml:20:5-22:41
MERGED from [androidx.core:core:1.6.0] /home/spc/.gradle/caches/transforms-3/d9b71328e8ba86dc125344804cb6eb44/transformed/core-1.6.0/AndroidManifest.xml:20:5-22:41
MERGED from [androidx.versionedparcelable:versionedparcelable:1.1.1] /home/spc/.gradle/caches/transforms-3/94c7c92f0d98d56b6d7d25165faa3647/transformed/versionedparcelable-1.1.1/AndroidManifest.xml:20:5-22:41
MERGED from [androidx.versionedparcelable:versionedparcelable:1.1.1] /home/spc/.gradle/caches/transforms-3/94c7c92f0d98d56b6d7d25165faa3647/transformed/versionedparcelable-1.1.1/AndroidManifest.xml:20:5-22:41
MERGED from [androidx.lifecycle:lifecycle-viewmodel-savedstate:2.2.0] /home/spc/.gradle/caches/transforms-3/5854c5f4d0aa4ade98476ef51376ec56/transformed/jetified-lifecycle-viewmodel-savedstate-2.2.0/AndroidManifest.xml:20:5-22:41
MERGED from [androidx.lifecycle:lifecycle-viewmodel-savedstate:2.2.0] /home/spc/.gradle/caches/transforms-3/5854c5f4d0aa4ade98476ef51376ec56/transformed/jetified-lifecycle-viewmodel-savedstate-2.2.0/AndroidManifest.xml:20:5-22:41
MERGED from [androidx.lifecycle:lifecycle-viewmodel:2.2.0] /home/spc/.gradle/caches/transforms-3/8eae7e885f280ad5f0fd528392efc2a7/transformed/lifecycle-viewmodel-2.2.0/AndroidManifest.xml:20:5-22:41
MERGED from [androidx.lifecycle:lifecycle-viewmodel:2.2.0] /home/spc/.gradle/caches/transforms-3/8eae7e885f280ad5f0fd528392efc2a7/transformed/lifecycle-viewmodel-2.2.0/AndroidManifest.xml:20:5-22:41
MERGED from [androidx.cardview:cardview:1.0.0] /home/spc/.gradle/caches/transforms-3/f2ad7df0010e7f67f5ad228c58f9ed39/transformed/cardview-1.0.0/AndroidManifest.xml:20:5-44
MERGED from [androidx.cardview:cardview:1.0.0] /home/spc/.gradle/caches/transforms-3/f2ad7df0010e7f67f5ad228c58f9ed39/transformed/cardview-1.0.0/AndroidManifest.xml:20:5-44
MERGED from [androidx.lifecycle:lifecycle-runtime:2.2.0] /home/spc/.gradle/caches/transforms-3/12f6c4b2a13d3e595268c585dcad626e/transformed/lifecycle-runtime-2.2.0/AndroidManifest.xml:20:5-22:41
MERGED from [androidx.lifecycle:lifecycle-runtime:2.2.0] /home/spc/.gradle/caches/transforms-3/12f6c4b2a13d3e595268c585dcad626e/transformed/lifecycle-runtime-2.2.0/AndroidManifest.xml:20:5-22:41
MERGED from [androidx.savedstate:savedstate:1.0.0] /home/spc/.gradle/caches/transforms-3/94edd46825b6420e602a89233c3e1acc/transformed/jetified-savedstate-1.0.0/AndroidManifest.xml:20:5-22:41
MERGED from [androidx.savedstate:savedstate:1.0.0] /home/spc/.gradle/caches/transforms-3/94edd46825b6420e602a89233c3e1acc/transformed/jetified-savedstate-1.0.0/AndroidManifest.xml:20:5-22:41
MERGED from [androidx.lifecycle:lifecycle-livedata:2.0.0] /home/spc/.gradle/caches/transforms-3/fcec1de4998beb0ff43cceab9e1087fb/transformed/lifecycle-livedata-2.0.0/AndroidManifest.xml:20:5-44
MERGED from [androidx.lifecycle:lifecycle-livedata:2.0.0] /home/spc/.gradle/caches/transforms-3/fcec1de4998beb0ff43cceab9e1087fb/transformed/lifecycle-livedata-2.0.0/AndroidManifest.xml:20:5-44
MERGED from [androidx.lifecycle:lifecycle-livedata-core:2.2.0] /home/spc/.gradle/caches/transforms-3/bc9ac48df2868c7096293dd453825149/transformed/lifecycle-livedata-core-2.2.0/AndroidManifest.xml:20:5-22:41
MERGED from [androidx.lifecycle:lifecycle-livedata-core:2.2.0] /home/spc/.gradle/caches/transforms-3/bc9ac48df2868c7096293dd453825149/transformed/lifecycle-livedata-core-2.2.0/AndroidManifest.xml:20:5-22:41
MERGED from [androidx.arch.core:core-runtime:2.1.0] /home/spc/.gradle/caches/transforms-3/93f6eb2b7b06805b3d18d5defe030544/transformed/core-runtime-2.1.0/AndroidManifest.xml:20:5-22:41
MERGED from [androidx.arch.core:core-runtime:2.1.0] /home/spc/.gradle/caches/transforms-3/93f6eb2b7b06805b3d18d5defe030544/transformed/core-runtime-2.1.0/AndroidManifest.xml:20:5-22:41
MERGED from [com.facebook.fresco:fbcore:2.5.0] /home/spc/.gradle/caches/transforms-3/13a62fc9eac702d3af832565af840540/transformed/jetified-fbcore-2.5.0/AndroidManifest.xml:5:5-7:41
MERGED from [com.facebook.fresco:fbcore:2.5.0] /home/spc/.gradle/caches/transforms-3/13a62fc9eac702d3af832565af840540/transformed/jetified-fbcore-2.5.0/AndroidManifest.xml:5:5-7:41
MERGED from [androidx.annotation:annotation-experimental:1.1.0] /home/spc/.gradle/caches/transforms-3/00092cdafea6f2aba95b7d4b2672c144/transformed/jetified-annotation-experimental-1.1.0/AndroidManifest.xml:20:5-22:41
MERGED from [androidx.annotation:annotation-experimental:1.1.0] /home/spc/.gradle/caches/transforms-3/00092cdafea6f2aba95b7d4b2672c144/transformed/jetified-annotation-experimental-1.1.0/AndroidManifest.xml:20:5-22:41
INJECTED from /home/spc/letsnav/android/app/src/debug/AndroidManifest.xml
INJECTED from /home/spc/letsnav/android/app/src/debug/AndroidManifest.xml
	android:targetSdkVersion
		INJECTED from /home/spc/letsnav/android/app/src/main/AndroidManifest.xml
		INJECTED from /home/spc/letsnav/android/app/src/debug/AndroidManifest.xml
	android:minSdkVersion
		INJECTED from /home/spc/letsnav/android/app/src/main/AndroidManifest.xml
		INJECTED from /home/spc/letsnav/android/app/src/debug/AndroidManifest.xml
uses-permission#android.permission.SYSTEM_ALERT_WINDOW
ADDED from /home/spc/letsnav/android/app/src/debug/AndroidManifest.xml:5:5-77
	android:name
		ADDED from /home/spc/letsnav/android/app/src/debug/AndroidManifest.xml:5:22-75
activity#com.facebook.react.devsupport.DevSettingsActivity
ADDED from /home/spc/letsnav/android/app/src/debug/AndroidManifest.xml:11:9-86
	android:name
		ADDED from /home/spc/letsnav/android/app/src/debug/AndroidManifest.xml:11:19-83
uses-permission#android.permission.ACCESS_WIFI_STATE
ADDED from [com.facebook.flipper:flipper:0.93.0] /home/spc/.gradle/caches/transforms-3/8cf55bdce16a002612f05f30a64a017a/transformed/jetified-flipper-0.93.0/AndroidManifest.xml:16:5-76
	android:name
		ADDED from [com.facebook.flipper:flipper:0.93.0] /home/spc/.gradle/caches/transforms-3/8cf55bdce16a002612f05f30a64a017a/transformed/jetified-flipper-0.93.0/AndroidManifest.xml:16:22-73
